{
  "name": "lamp-stack",
  "description": "Installs/Configures lamp-stack",
  "long_description": "Installs/Configures lamp-stack",
  "maintainer": "The Authors",
  "maintainer_email": "you@example.com",
  "license": "all_rights",
  "platforms": {
  },
  "dependencies": {
    "mysql": "~> 6.0",
    "apt": "~> 2.9.2",
    "build-essential": "~> 2.2.4",
    "database": "~> 4.0.9",
    "mysql2_chef_gem": "~> 1.0.2"
  },
  "recommendations": {
  },
  "suggestions": {
  },
  "conflicting": {
  },
  "providing": {
  },
  "replacing": {
  },
  "attributes": {
  },
  "groupings": {
  },
  "recipes": {
  },
  "version": "0.1.0",
  "source_url": "",
  "issues_url": ""
}